{"tvShows":[],"lifestyle":[],"allies":[],"enemies":[],"_id":6,"title":"'Olu Mel","url":"https://api.disneyapi.dev/characters/6"},"count":50,"totalPages":149,"nextPage":"https://api.disneyapi.dev/characters?page=2"}

