{"data":[{"films":[],"shortFilms":[],"tvShows":[],"videoGames":[],"parkAttractions":[],"allies":[],"enemies":[],"_id":6,"name":"'Olu Mel","imageUrl":"https://static.wikia.nocookie.net/disney/images/6/61/Olu_main.png","url":"https://api.disneyapi.dev/characters/6"}],"count":50,"totalPages":149,"nextPage":"https://api.disneyapi.dev/characters?page=2"}
